…
#### 使用 `arrange()` 根据列值（变量）排序行 {#arrange}


``` r
starwars %>% arrange(height)
```

```
#> # A tibble: 87 × 14
#>    name     height  mass hair_color skin_color eye_color birth_year sex   gender
#>    <chr>     <int> <dbl> <chr>      <chr>      <chr>          <dbl> <chr> <chr> 
#>  1 Yoda         66    17 white      green      brown            896 male  mascu…
#>  2 Ratts T…     79    15 none       grey, blue unknown           NA male  mascu…
#>  3 Wicket …     88    20 brown      brown      brown              8 male  mascu…
#>  4 Dud Bolt     94    45 none       blue, grey yellow            NA male  mascu…
#>  5 R2-D2        96    32 <NA>       white, bl… red               33 none  mascu…
#>  6 R4-P17       96    NA none       silver, r… red, blue         NA none  femin…
#>  7 R5-D4        97    32 <NA>       white, red red               NA none  mascu…
#>  8 Sebulba     112    40 none       grey, red  orange            NA male  mascu…
#>  9 Gasgano     122    NA none       white, bl… black             NA male  mascu…
#> 10 Watto       137    NA black      blue, grey yellow            NA male  mascu…
#> # ℹ 77 more rows
#> # ℹ 5 more variables: homeworld <chr>, species <chr>, films <list>,
#> #   vehicles <list>, starships <list>
```
…
{{< /tab >}}

#### 使用 `slice()` 根据行的位置选择行 {#slice}

使用 `slice()` 可以选择、删除和复制行：


``` r
starwars %>% slice(seq(1, nrow(.), 2)) # 选择奇数行
starwars %>% slice(-seq(1, nrow(.), 2)) # 去除奇数行
starwars %>% slice(rep(1, 10)) # 复制第 1 行 10 次
```

```
#> # A tibble: 44 × 14
#>    name     height  mass hair_color skin_color eye_color birth_year sex   gender
#>    <chr>     <int> <dbl> <chr>      <chr>      <chr>          <dbl> <chr> <chr> 
#>  1 Luke Sk…    172    77 blond      fair       blue            19   male  mascu…
#>  2 R2-D2        96    32 <NA>       white, bl… red             33   none  mascu…
#>  3 Leia Or…    150    49 brown      light      brown           19   fema… femin…
#>  4 Beru Wh…    165    75 brown      light      blue            47   fema… femin…
#>  5 Biggs D…    183    84 black      light      brown           24   male  mascu…
#>  6 Anakin …    188    84 blond      fair       blue            41.9 male  mascu…
#>  7 Chewbac…    228   112 brown      unknown    blue           200   male  mascu…
#>  8 Greedo      173    74 <NA>       green      black           44   male  mascu…
#>  9 Wedge A…    170    77 brown      fair       hazel           21   male  mascu…
#> 10 Yoda         66    17 white      green      brown          896   male  mascu…
#> # ℹ 34 more rows
#> # ℹ 5 more variables: homeworld <chr>, species <chr>, films <list>,
#> #   vehicles <list>, starships <list>
#> # A tibble: 43 × 14
#>    name     height  mass hair_color skin_color eye_color birth_year sex   gender
#>    <chr>     <int> <dbl> <chr>      <chr>      <chr>          <dbl> <chr> <chr> 
#>  1 C-3PO       167    75 <NA>       gold       yellow         112   none  mascu…
#>  2 Darth V…    202   136 none       white      yellow          41.9 male  mascu…
#>  3 Owen La…    178   120 brown, gr… light      blue            52   male  mascu…
#>  4 R5-D4        97    32 <NA>       white, red red             NA   none  mascu…
#>  5 Obi-Wan…    182    77 auburn, w… fair       blue-gray       57   male  mascu…
#>  6 Wilhuff…    180    NA auburn, g… fair       blue            64   male  mascu…
#>  7 Han Solo    180    80 brown      fair       brown           29   male  mascu…
#>  8 Jabba D…    175  1358 <NA>       green-tan… orange         600   herm… mascu…
#>  9 Jek Ton…    180   110 brown      fair       blue            NA   <NA>  <NA>  
#> 10 Palpati…    170    75 grey       pale       yellow          82   male  mascu…
#> # ℹ 33 more rows
#> # ℹ 5 more variables: homeworld <chr>, species <chr>, films <list>,
#> #   vehicles <list>, starships <list>
…
可以指定多个位置条件，效果就像是将多个条件合并一样：


``` r
starwars %>% slice(-seq(1, nrow(.), 2), -c(1:10))
```

```
#> # A tibble: 38 × 14
#>    name     height  mass hair_color skin_color eye_color birth_year sex   gender
#>    <chr>     <int> <dbl> <chr>      <chr>      <chr>          <dbl> <chr> <chr> 
#>  1 Wilhuff…    180    NA auburn, g… fair       blue              64 male  mascu…
#>  2 Han Solo    180    80 brown      fair       brown             29 male  mascu…
#>  3 Jabba D…    175  1358 <NA>       green-tan… orange           600 herm… mascu…
#>  4 Jek Ton…    180   110 brown      fair       blue              NA <NA>  <NA>  
#>  5 Palpati…    170    75 grey       pale       yellow            82 male  mascu…
#>  6 IG-88       200   140 none       metal      red               15 none  mascu…
#>  7 Lando C…    177    79 black      dark       brown             31 male  mascu…
#>  8 Ackbar      180    83 none       brown mot… orange            41 male  mascu…
#>  9 Arvel C…     NA    NA brown      fair       brown             NA male  mascu…
#> 10 Nien Nu…    160    68 none       grey       black             NA male  mascu…
#> # ℹ 28 more rows
#> # ℹ 5 more variables: homeworld <chr>, species <chr>, films <list>,
#> #   vehicles <list>, starships <list>
```
…
### 操纵列的单表格动词

#### 使用 `select()` 选择列

可以使用变量名（`height`）或变量名字符串（`"height"`）、作为一个向量（`select(c(height, "mass"))`）或作为多个参数（`starwars %>% select(height, "mass")`）指定要选择的列：


``` r
starwars %>% select(height, "mass")
```

```
#> # A tibble: 87 × 2
#>    height  mass
#>     <int> <dbl>
#>  1    172    77
#>  2    167    75
#>  3     96    32
#>  4    202   136
#>  5    150    49
#>  6    178   120
#>  7    165    75
#>  8     97    32
#>  9    183    84
#> 10    182    77
#> # ℹ 77 more rows
```
